{
  "dev": {
    "app_function": "src.app.app",
    "project_name": "job-hunter",
    "aws_region": "eu-west-1",
    "runtime": "python3.7",
    "s3_bucket": "job-hunter",
    "binary_support": true,
    "manage_roles": false,
    "role_arn": "YOUR_ZAPPA_ROLE",
    "log_level": "INFO",
    "apigateway_enabled": true,
    "keep_warm": false,
    "timeout_seconds": 600,
    "memory_size": 1024
  }
}

